8.000000,82637,0.416092,0.306991
8.000000,97896,0.420690,0.352764
8.000000,112498,0.356322,0.391658
8.000000,127521,0.339080,0.426098
8.000000,141682,0.359770,0.452941
8.000000,156657,0.375862,0.475003
8.000000,170976,0.377012,0.489734
8.000000,185249,0.378161,0.498030
8.000000,199890,0.382759,0.499799
8.000000,213961,0.386207,0.495046
8.000000,228210,0.387356,0.483846
8.000000,242867,0.388506,0.465776
8.000000,256921,0.388506,0.442437
8.000000,271166,0.388506,0.413082
8.000000,285540,0.388506,0.378030
8.000000,299693,0.387356,0.338636
8.000000,313541,0.388506,0.295890
8.000000,328251,0.383908,0.246522
8.000000,342478,0.359770,0.195523
8.000000,356727,0.324138,0.141911
8.000000,371210,0.274713,0.085534
8.000000,385346,0.218391,0.029395
8.000000,399484,0.149425,-0.027126
8.000000,414881,0.080460,-0.088263
8.000000,428796,0.027586,-0.142389
8.000000,442830,-0.021839,-0.195191
8.000000,460784,-0.081609,-0.259072
8.000000,478637,-0.140230,-0.317305
8.000000,496406,-0.208046,-0.368849
8.000000,514084,-0.259770,-0.412748
8.000000,531919,-0.296552,-0.448682
8.000000,549750,-0.324138,-0.475493
8.000000,567587,-0.337931,-0.492648
8.000000,586300,-0.371264,-0.499879
8.000000,604199,-0.393103,-0.496332
8.000000,622015,-0.396552,-0.482712
8.000000,640135,-0.396552,-0.458821
8.000000,658044,-0.396552,-0.425748
8.000000,675856,-0.396552,-0.384200
8.000000,693706,-0.396552,-0.334751
8.000000,711578,-0.397701,-0.278414
8.000000,729268,-0.389655,-0.217051
8.000000,747073,-0.349425,-0.150910
8.000000,764942,-0.275862,-0.081460
8.000000,782792,-0.206897,-0.010424
8.000000,800675,-0.152874,0.060955
8.000000,818498,-0.091954,0.130857
8.000000,836311,-0.012644,0.198067
8.000000,854299,0.074713,0.261858
8.000000,872122,0.125287,0.319728
8.000000,889982,0.151724,0.371208
8.000000,907761,0.195402,0.414943
8.000000,925642,0.259770,0.450474
8.000000,943460,0.312644,0.476728
8.000000,961249,0.344828,0.493292
8.000000,981363,0.343678,0.499998
8.000000,999592,0.348276,0.494914
8.000000,1017504,0.354023,0.479683
8.000000,1035395,0.357471,0.454654
8.000000,1053241,0.357471,0.420425
8.000000,1070981,0.358621,0.377918
8.000000,1088852,0.358621,0.327417
8.000000,1106726,0.360920,0.270224
8.000000,1124855,0.356322,0.206588
8.000000,1142761,0.313793,0.139470
8.000000,1160695,0.242529,0.069384
8.000000,1178463,0.163218,-0.001463
8.000000,1196253,0.103448,-0.072368
8.000000,1213998,0.043678,-0.141637
8.000000,1231712,-0.012644,-0.207944
8.000000,1249441,-0.094253,-0.270132
8.000000,1267130,-0.178161,-0.326774
8.000000,1285000,-0.228736,-0.377358
8.000000,1302649,-0.248276,-0.419764
8.000000,1320416,-0.288506,-0.454014
8.000000,1338191,-0.341379,-0.479115
8.000000,1355885,-0.390805,-0.494497
8.000000,1373683,-0.393103,-0.499991
8.000000,1391366,-0.389655,-0.495427
8.000000,1409129,-0.391954,-0.480877
8.000000,1426743,-0.391954,-0.456876
8.000000,1444506,-0.391954,-0.423502
8.000000,1462202,-0.391954,-0.381763
8.000000,1479877,-0.390805,-0.332448
8.000000,1497559,-0.389655,-0.276474
8.000000,1515460,-0.383908,-0.214186
8.000000,1533099,-0.340230,-0.148514
8.000000,1550687,-0.270115,-0.080091
8.000000,1568469,-0.189655,-0.009309
8.000000,1586188,-0.144828,0.061411
8.000000,1603943,-0.098851,0.131038
8.000000,1621724,-0.014943,0.198122
8.000000,1640221,0.080460,0.263640
8.000000,1658041,0.143678,0.321327
8.000000,1675658,0.173563,0.371952
8.000000,1693270,0.189655,0.415190
8.000000,1711301,0.237931,0.450926
8.000000,1729049,0.316092,0.476957
8.000000,1746725,0.368966,0.493343
8.000000,1764362,0.371264,0.499876
8.000000,1782172,0.372414,0.496392
8.000000,1799786,0.381609,0.483051
8.000000,1818200,0.378161,0.458872
8.000000,1835993,0.380460,0.426059
8.000000,1853791,0.379310,0.384615
8.000000,1871500,0.379310,0.335651
8.000000,1889311,0.379310,0.279623
8.000000,1906953,0.363218,0.218535
8.000000,1924561,0.329885,0.153232
8.000000,1942340,0.268966,0.084218
8.000000,1960054,0.193103,0.013764
8.000000,1977812,0.113793,-0.057141
8.000000,1995514,0.052874,-0.126678
8.000000,2013241,0.002299,-0.193771
8.000000,2031081,-0.068966,-0.257362
8.000000,2048715,-0.152874,-0.315079
8.000000,2066709,-0.222989,-0.367514
8.000000,2084420,-0.249425,-0.411706
8.000000,2102160,-0.278161,-0.447697
8.000000,2120046,-0.321839,-0.474870
8.000000,2137695,-0.363218,-0.492171
8.000000,2155717,-0.385057,-0.499727
8.000000,2173500,-0.383908,-0.497020
8.000000,2191320,-0.385057,-0.484233
8.000000,2209099,-0.386207,-0.461684
8.000000,2226836,-0.382759,-0.429897
8.000000,2244516,-0.386207,-0.389612
8.000000,2262241,-0.386207,-0.341414
8.000000,2279957,-0.386207,-0.286393
8.000000,2297739,-0.375862,-0.225392
8.000000,2315363,-0.336782,-0.160437
8.000000,2332950,-0.283908,-0.092443
8.000000,2350533,-0.220690,-0.022638
8.000000,2368150,-0.155172,0.047749
8.000000,2385755,-0.090805,0.117143
8.000000,2403333,-0.018391,0.184117
8.000000,2421074,0.057471,0.248022
8.000000,2438763,0.111494,0.306775
8.000000,2456486,0.155172,0.359489
8.000000,2474195,0.197701,0.404957
8.000000,2485692,0.224138,0.430181
8.000000,2503898,0.295402,0.462612
8.000000,2521652,0.339080,0.484808
8.000000,2539492,0.345977,0.497277
8.000000,2557269,0.350575,0.499643
8.000000,2575037,0.359770,0.491927
8.000000,2592722,0.364368,0.474393
8.000000,2610295,0.366667,0.447580
8.000000,2627866,0.366667,0.411939
8.000000,2645490,0.367816,0.368029
8.000000,2663206,0.367816,0.316530
8.000000,2680919,0.366667,0.258694
8.000000,2698571,0.354023,0.195897
8.000000,2716982,0.308046,0.126264
8.000000,2734681,0.242529,0.056728
8.000000,2752364,0.167816,-0.013880
8.000000,2770105,0.096552,-0.084439
8.000000,2788033,0.034483,-0.154012
8.000000,2805667,-0.024138,-0.219366
8.000000,2823228,-0.101149,-0.280120
8.000000,2840832,-0.183908,-0.335482
8.000000,2858594,-0.225287,-0.384605
8.000000,2876259,-0.243678,-0.425772
8.000000,2893851,-0.291954,-0.458334
8.000000,2911560,-0.351724,-0.481957
8.000000,2929251,-0.382759,-0.495914
8.000000,2947066,-0.383908,-0.499947
8.000000,2964684,-0.385057,-0.493965
8.000000,2982341,-0.386207,-0.478141
8.000000,3000037,-0.386207,-0.452726
8.000000,3017752,-0.383908,-0.418212
8.000000,3035421,-0.386207,-0.375433
8.000000,3053102,-0.386207,-0.325129
8.000000,3070853,-0.385057,-0.268095
8.000000,3088511,-0.365517,-0.206002
8.000000,3106158,-0.316092,-0.139848
8.000000,3123991,-0.260920,-0.070174
8.000000,3141627,-0.198851,0.000137
8.000000,3159277,-0.134483,0.070502
8.000000,3177008,-0.063218,0.139774
8.000000,3194716,0.013793,0.206154
8.000000,3212342,0.075862,0.268128
8.000000,3230028,0.128736,0.324961
8.000000,3247791,0.172414,0.375504
8.000000,3265489,0.217241,0.418334
8.000000,3283077,0.270115,0.452605
8.000000,3300692,0.316092,0.477963
8.000000,3318461,0.340230,0.493940
8.000000,3336193,0.358621,0.499951
8.000000,3353893,0.364368,0.495935
8.000000,3371503,0.371264,0.482087
8.000000,3389230,0.370115,0.458500
8.000000,3406869,0.371264,0.425892
8.000000,3424501,0.373563,0.384836
8.000000,3442316,0.370115,0.335592
8.000000,3459935,0.373563,0.280194
8.000000,3477528,0.363218,0.219331
8.000000,3495149,0.335632,0.154025
8.000000,3512860,0.271264,0.085308
8.000000,3530506,0.197701,0.015141
8.000000,3548151,0.128736,-0.055324
8.000000,3565996,0.060920,-0.125462
8.000000,3583834,-0.001149,-0.193021
8.000000,3601462,-0.066667,-0.255936
8.000000,3619067,-0.132184,-0.313697
8.000000,3636615,-0.205747,-0.365090
8.000000,3654326,-0.256322,-0.409674
8.000000,3672049,-0.283908,-0.446070
8.000000,3689753,-0.308046,-0.473488
8.000000,3707549,-0.339080,-0.491492
8.000000,3725189,-0.375862,-0.499524
8.000000,3742865,-0.387356,-0.497611
8.000000,3760655,-0.388506,-0.485656
8.000000,3778265,-0.388506,-0.464149
8.000000,3796763,-0.388506,-0.431663
8.000000,3816907,-0.388506,-0.385583
8.000000,3834352,-0.388506,-0.337554
8.000000,3851888,-0.388506,-0.282661
8.000000,3873464,-0.385057,-0.207624
8.000000,3884984,-0.342529,-0.164882
8.000000,3903007,-0.273563,-0.095348
8.000000,3920623,-0.214943,-0.025460
8.000000,3938406,-0.168966,0.045597
8.000000,3956067,-0.103448,0.115259
8.000000,3973602,-0.011494,0.182154
8.000000,3985038,0.041379,0.223933
8.000000,4003196,0.108046,0.286287
8.000000,4020940,0.149425,0.341402
8.000000,4038622,0.182759,0.389494
8.000000,4056510,0.228736,0.430225
8.000000,4074404,0.294253,0.462171
8.000000,4092168,0.342529,0.484533
8.000000,4109925,0.352874,0.497123
8.000000,4127751,0.355172,0.499689
8.000000,4145442,0.365517,0.492205
8.000000,4163072,0.377012,0.474954
8.000000,4180629,0.377012,0.448401
8.000000,4198212,0.377012,0.412957
8.000000,4215824,0.379310,0.369278
8.000000,4233430,0.374713,0.318299
8.000000,4251018,0.375862,0.261077
8.000000,4268718,0.366667,0.198284
8.000000,4286370,0.318391,0.131707
8.000000,4304348,0.242529,0.061214
8.000000,4322187,0.171264,-0.009988
8.000000,4339957,0.106897,-0.080714
8.000000,4357716,0.051724,-0.149769
8.000000,4375408,-0.017241,-0.215565
8.000000,4393167,-0.104598,-0.277273
8.000000,4411112,-0.175862,-0.333947
8.000000,4428763,-0.221839,-0.382997
8.000000,4446553,-0.242529,-0.424715
8.000000,4464266,-0.282759,-0.457722
8.000000,4481989,-0.341379,-0.481564
8.000000,4499756,-0.380460,-0.495764
8.000000,4517463,-0.383908,-0.499968
8.000000,4535158,-0.385057,-0.494163
8.000000,4552894,-0.383908,-0.478425
8.000000,4570601,-0.385057,-0.453120
8.000000,4588310,-0.383908,-0.418734
8.000000,4606089,-0.385057,-0.375772
8.000000,4623741,-0.385057,-0.325607
8.000000,4641510,-0.383908,-0.268565
8.000000,4659154,-0.363218,-0.206561
8.000000,4676758,-0.313793,-0.140602
8.000000,4694298,-0.257471,-0.072112
8.000000,4711902,-0.197701,-0.001948
8.000000,4729469,-0.132184,0.068108
8.000000,4747047,-0.060920,0.136863
8.000000,4764590,0.014943,0.202788
8.000000,4782200,0.075862,0.264952
8.000000,4799749,0.125287,0.321680
8.000000,4817338,0.175862,0.372185
8.000000,4835887,0.224138,0.417459
8.000000,4854781,0.278161,0.454136
8.000000,4872598,0.322989,0.479247
8.000000,4890465,0.354023,0.494667
8.000000,4908090,0.358621,0.499993
8.000000,4925949,0.362069,0.495268
8.000000,4943731,0.372414,0.480536
8.000000,4961539,0.375862,0.456053
8.000000,4979151,0.377012,0.422749
8.000000,4996783,0.375862,0.381014
8.000000,5014462,0.377012,0.331571
8.000000,5032149,0.379310,0.275479
8.000000,5049769,0.362069,0.214124
8.000000,5067368,0.329885,0.148601
8.000000,5084945,0.271264,0.080224
8.000000,5102558,0.203448,0.010120
8.000000,5120379,0.128736,-0.061011
8.000000,5138128,0.055172,-0.130626
8.000000,5155819,-0.006897,-0.197399
8.000000,5173573,-0.071264,-0.260439
8.000000,5191260,-0.131034,-0.318028
8.000000,5208872,-0.202299,-0.369057
8.000000,5226443,-0.259770,-0.412680
8.000000,5244079,-0.288506,-0.448277
8.000000,5261839,-0.311494,-0.475120
8.000000,5279485,-0.336782,-0.492309
8.000000,5297218,-0.364368,-0.499715
8.000000,5314861,-0.380460,-0.497120
8.000000,5332588,-0.380460,-0.484555
8.000000,5350188,-0.382759,-0.462454
8.000000,5367816,-0.382759,-0.431144
8.000000,5385408,-0.382759,-0.391363
8.000000,5403004,-0.381609,-0.343831
8.000000,5420571,-0.382759,-0.289593
8.000000,5438223,-0.365517,-0.229342
8.000000,5455973,-0.332184,-0.164155
8.000000,5473574,-0.285057,-0.096248
8.000000,5485033,-0.257471,-0.050928
8.000000,5502996,-0.170115,0.020829
8.000000,5520765,-0.089655,0.091395
8.000000,5538448,-0.027586,0.159790
8.000000,5556209,0.020690,0.225272
8.000000,5573885,0.078161,0.285935
8.000000,5591641,0.154023,0.341123
8.000000,5609396,0.217241,0.389438
8.000000,5627116,0.250575,0.429837
8.000000,5644817,0.281609,0.461583
8.000000,5662530,0.313793,0.484101
8.000000,5680290,0.354023,0.496935
8.000000,5697894,0.374713,0.499774
8.000000,5715495,0.379310,0.492719
8.000000,5733116,0.380460,0.475886
8.000000,5750884,0.380460,0.449355
8.000000,5768501,0.379310,0.414098
8.000000,5786073,0.382759,0.370751
8.000000,5804056,0.380460,0.318824
8.000000,5823224,0.379310,0.256252
8.000000,5841155,0.358621,0.192242
8.000000,5859060,0.312644,0.124385
8.000000,5876854,0.242529,0.054421
8.000000,5894521,0.174713,-0.016136
8.000000,5912274,0.104598,-0.086710
8.000000,5922368,0.066667,-0.126149
8.000000,5940144,-0.001149,-0.193448
8.000000,5957925,-0.070115,-0.256858
8.000000,5975570,-0.134483,-0.314657
8.000000,5993389,-0.193103,-0.366670
8.000000,6011038,-0.245977,-0.410858
8.000000,6028800,-0.283908,-0.447071
8.000000,6046435,-0.319540,-0.474111
8.000000,6064199,-0.337931,-0.491824
8.000000,6082223,-0.345977,-0.499660
8.000000,6099919,-0.372414,-0.497264
8.000000,6117742,-0.388506,-0.484795
8.000000,6135470,-0.387356,-0.462630
8.000000,6153087,-0.386207,-0.431401
8.000000,6170848,-0.388506,-0.391259
8.000000,6188414,-0.388506,-0.343797
8.000000,6205989,-0.388506,-0.289528
8.000000,6223638,-0.375862,-0.229282
8.000000,6241222,-0.333333,-0.164718
8.000000,6258819,-0.278161,-0.096849
8.000000,6276423,-0.220690,-0.027036
